research_question_2
…
# Check for missing values
missing_values <- ufc_data %>%
  summarise(across(everything(), ~sum(is.na(.)))) %>%
  pivot_longer(cols = everything(), names_to = "Variable", values_to = "Missing_Count")

print("Missing values in each column:")

[1] "Missing values in each column:"

print(missing_values)

# A tibble: 118 × 2
   Variable          Missing_Count
   <chr>                     <int>
 1 RedFighter                    0
 2 BlueFighter                   0
 3 RedOdds                     219
 4 BlueOdds                    219
 5 RedExpectedValue            219
 6 BlueExpectedValue           219
 7 Date                          0
 8 Location                      0
 9 Country                       0
10 Winner                        0
# ℹ 108 more rows
…
  # Previously
  across(a:b, mean, na.rm = TRUE)

  # Now
  across(a:b, \(x) mean(x, na.rm = TRUE))

print("Summary statistics for numerical variables:")

[1] "Summary statistics for numerical variables:"

print(summary_stats)

# A tibble: 107 × 6
   Variable                   mean       sd  median      min   max
   <chr>                     <dbl>    <dbl>   <dbl>    <dbl> <dbl>
 1 RedOdds               -111.     270.     -145    -1600      700
 2 BlueOdds                55.9    249.      130    -1100     1150
 3 RedExpectedValue        96.9     83.9      69.0      6.25   700
 4 BlueExpectedValue      162.     134.      130        9.09  1150
 5 NumberOfRounds           3.22     0.631     3        3        5
 6 BlueCurrentLoseStreak    0.571    0.839     0        0        6
 7 BlueCurrentWinStreak     1.20     1.53      1        0       12
 8 BlueDraws                0.0274   0.173     0        0        2
 9 BlueAvgSigStrLanded     20.5     19.7      14        0      135
10 BlueAvgSigStrPct         0.460    0.0922    0.46     0        1
# ℹ 97 more rows
…
