Final Research Question 2
…
# Check for missing values
missing_values <- ufc_data %>%
  summarise(across(everything(), ~sum(is.na(.)))) %>%
  pivot_longer(cols = everything(), names_to = "Variable", values_to = "Missing_Count")

print("Missing values in each column:")

[1] "Missing values in each column:"

print(missing_values)

# A tibble: 118 × 2
   Variable          Missing_Count
   <chr>                     <int>
 1 RedFighter                    0
 2 BlueFighter                   0
 3 RedOdds                     219
 4 BlueOdds                    219
 5 RedExpectedValue            219
 6 BlueExpectedValue           219
 7 Date                          0
 8 Location                      0
 9 Country                       0
10 Winner                        0
# ℹ 108 more rows
…
  # Previously
  across(a:b, mean, na.rm = TRUE)

  # Now
  across(a:b, \(x) mean(x, na.rm = TRUE))

print("Summary statistics for numerical variables:")

[1] "Summary statistics for numerical variables:"

print(summary_stats)

# A tibble: 111 × 6
   Variable                   mean      sd  median      min   max
   <chr>                     <dbl>   <dbl>   <dbl>    <dbl> <dbl>
 1 RedOdds               -116.     276.    -150    -2100      700
 2 BlueOdds                60.5    251.     130    -1100     1150
 3 RedExpectedValue        96.2     84.6     66.7      4.76   700
 4 BlueExpectedValue      165.     136.     130        9.09  1150
 5 NumberOfRounds           3.21     0.614    3        3        5
 6 BlueCurrentLoseStreak    0.571    0.829    0        0        6
 7 BlueCurrentWinStreak     1.13     1.46     1        0       12
 8 BlueDraws                0.0247   0.163    0        0        2
 9 BlueAvgSigStrLanded     20.9     20.6     13        0      154
10 BlueAvgSigStrPct         0.457    0.104    0.46     0        1
# ℹ 101 more rows
…
