research_question_2
…
# Step 2: Exploratory Data Analysis (EDA)

# Check for null values in each column
missing_values <- ufc_data %>%
  summarise(across(everything(), ~sum(is.na(.)))) %>%
  pivot_longer(cols = everything(), names_to = "Variable", values_to = "Missing_Count")

print("Missing values in each column:")

[1] "Missing values in each column:"

print(missing_values)

# A tibble: 118 × 2
   Variable          Missing_Count
   <chr>                     <int>
 1 RedFighter                    0
 2 BlueFighter                   0
 3 RedOdds                     219
 4 BlueOdds                    219
 5 RedExpectedValue            219
 6 BlueExpectedValue           219
 7 Date                          0
 8 Location                      0
 9 Country                       0
10 Winner                        0
# ℹ 108 more rows
…
  # Previously
  across(a:b, mean, na.rm = TRUE)

  # Now
  across(a:b, \(x) mean(x, na.rm = TRUE))

print("Summary statistics for numerical variables:")

[1] "Summary statistics for numerical variables:"

print(summary_stats)

# A tibble: 101 × 6
   Variable                   mean      sd  median      min   max
   <chr>                     <dbl>   <dbl>   <dbl>    <dbl> <dbl>
 1 RedOdds               -115.     275.    -150    -2100      775
 2 BlueOdds                59.9    252.     130    -1200     1300
 3 RedExpectedValue        96.5     85.3     66.7      4.76   775
 4 BlueExpectedValue      165.     137.     130        8.33  1300
 5 NumberOfRounds           3.19     0.578    3        3        5
 6 BlueCurrentLoseStreak    0.502    0.795    0        0        6
 7 BlueCurrentWinStreak     0.954    1.40     0        0       12
 8 BlueDraws                0.0225   0.155    0        0        2
 9 BlueAvgSigStrLanded     20.0     20.3     10        0      154
10 BlueAvgSigStrPct         0.453    0.111    0.46     0        1
# ℹ 91 more rows
…
# View the rows with extreme points
ufc_data_clean[influential_points, ]

# A tibble: 229 × 124
   RedFighter    BlueFighter RedOdds BlueOdds RedExpectedValue BlueExpectedValue
   <chr>         <chr>         <dbl>    <dbl>            <dbl>             <dbl>
 1 Mateusz Rebe… Myktybek O…     215     -265            215               37.7 
 2 Joselyne Edw… Tamires Vi…    -258      210             38.8            210   
 3 Ketlen Vieira Kayla Harr…     700    -1100            700                9.09
 4 Casey O'Neill Luana Sant…     124     -160            124               62.5 
 5 Miranda Mave… Dione Barb…      NA       NA             NA               NA   
 6 Dan Ige       Diego Lopes     240     -298            240               33.6 
 7 Shara Magome… Antonio Tr…    -810      500             12.3            500   
 8 Holly Holm    Kayla Harr…     350     -455            350               22.0 
 9 Alex Perez    Muhammad M…     320     -410            320               24.4 
10 Zhang Mingya… Brendson R…    -110     -110             90.9             90.9 
# ℹ 219 more rows
# ℹ 118 more variables: Date <date>, Location <chr>, Country <chr>,
#   Winner <chr>, TitleBout <lgl>, WeightClass <fct>, Gender <chr>,
#   NumberOfRounds <dbl>, BlueCurrentLoseStreak <dbl>,
#   BlueCurrentWinStreak <dbl>, BlueDraws <dbl>, BlueAvgSigStrLanded <dbl>,
#   BlueAvgSigStrPct <dbl>, BlueAvgSubAtt <dbl>, BlueAvgTDLanded <dbl>,
#   BlueAvgTDPct <dbl>, BlueLongestWinStreak <dbl>, BlueLosses <dbl>, …
…
